Load All Event Files — load_all_events • bidser
…
#> Delimiter: "\t"
#> chr (1): trial_type
#> dbl (7): onset, duration, cash_demean, control_pumps_demean, explode_demean,...
#> 
#> ℹ Use `spec()` to retrieve the full column specification for this data.
#> ℹ Specify the column types or set `show_col_types = FALSE` to quiet this message.
#> Rows: 157 Columns: 8
#> ── Column specification ────────────────────────────────────────────────────────
#> Delimiter: "\t"
#> chr (1): trial_type
#> dbl (7): onset, duration, cash_demean, control_pumps_demean, explode_demean,...
#> 
#> ℹ Use `spec()` to retrieve the full column specification for this data.
#> ℹ Specify the column types or set `show_col_types = FALSE` to quiet this message.
#> # A tibble: 7,723 × 14
#>    .subid .session .task      .run  file   onset duration trial_type cash_demean
#>    <chr>  <chr>    <chr>      <chr> <chr>  <dbl>    <dbl> <chr>            <dbl>
#>  1 01     NA       balloonan… 01    /tmp…  0.061    0.772 pumps_dem…          NA
#>  2 01     NA       balloonan… 01    /tmp…  4.96     0.772 pumps_dem…          NA
#>  3 01     NA       balloonan… 01    /tmp…  7.18     0.772 pumps_dem…          NA
#>  4 01     NA       balloonan… 01    /tmp… 10.4      0.772 pumps_dem…          NA
#>  5 01     NA       balloonan… 01    /tmp… 13.4      0.772 pumps_dem…          NA
#>  6 01     NA       balloonan… 01    /tmp… 16.8      0.772 explode_d…          NA
#>  7 01     NA       balloonan… 01    /tmp… 24.9      0.772 pumps_dem…          NA
#>  8 01     NA       balloonan… 01    /tmp… 27.5      0.772 pumps_dem…          NA
#>  9 01     NA       balloonan… 01    /tmp… 30.1      0.772 cash_deme…          -4
#> 10 01     NA       balloonan… 01    /tmp… 38.4      0.772 pumps_dem…          NA
#> # ℹ 7,713 more rows
#> # ℹ 5 more variables: control_pumps_demean <dbl>, explode_demean <dbl>,
#> #   pumps_demean <dbl>, response_time <dbl>, .file <chr>
…
#> Delimiter: "\t"
#> chr (1): trial_type
#> dbl (7): onset, duration, cash_demean, control_pumps_demean, explode_demean,...
#> 
#> ℹ Use `spec()` to retrieve the full column specification for this data.
#> ℹ Specify the column types or set `show_col_types = FALSE` to quiet this message.
#> Rows: 149 Columns: 8
#> ── Column specification ────────────────────────────────────────────────────────
#> Delimiter: "\t"
#> chr (1): trial_type
#> dbl (7): onset, duration, cash_demean, control_pumps_demean, explode_demean,...
#> 
#> ℹ Use `spec()` to retrieve the full column specification for this data.
#> ℹ Specify the column types or set `show_col_types = FALSE` to quiet this message.
#> # A tibble: 463 × 14
#>    .subid .session .task      .run  file   onset duration trial_type cash_demean
#>    <chr>  <chr>    <chr>      <chr> <chr>  <dbl>    <dbl> <chr>            <dbl>
#>  1 01     NA       balloonan… 01    /tmp…  0.061    0.772 pumps_dem…          NA
#>  2 01     NA       balloonan… 01    /tmp…  4.96     0.772 pumps_dem…          NA
#>  3 01     NA       balloonan… 01    /tmp…  7.18     0.772 pumps_dem…          NA
#>  4 01     NA       balloonan… 01    /tmp… 10.4      0.772 pumps_dem…          NA
#>  5 01     NA       balloonan… 01    /tmp… 13.4      0.772 pumps_dem…          NA
#>  6 01     NA       balloonan… 01    /tmp… 16.8      0.772 explode_d…          NA
#>  7 01     NA       balloonan… 01    /tmp… 24.9      0.772 pumps_dem…          NA
#>  8 01     NA       balloonan… 01    /tmp… 27.5      0.772 pumps_dem…          NA
#>  9 01     NA       balloonan… 01    /tmp… 30.1      0.772 cash_deme…          -4
#> 10 01     NA       balloonan… 01    /tmp… 38.4      0.772 pumps_dem…          NA
#> # ℹ 453 more rows
#> # ℹ 5 more variables: control_pumps_demean <dbl>, explode_demean <dbl>,
#> #   pumps_demean <dbl>, response_time <dbl>, .file <chr>
…
