…
#> Project does not have fmriprep derivatives enabled. Cannot search for confound files.
#> Project does not have fmriprep derivatives enabled. Cannot search for confound files.
#> Project does not have fmriprep derivatives enabled. Cannot search for confound files.
#> Project does not have fmriprep derivatives enabled. Cannot search for confound files.
#> Project does not have fmriprep derivatives enabled. Cannot search for confound files.
#> Project does not have fmriprep derivatives enabled. Cannot search for confound files.
#> Project does not have fmriprep derivatives enabled. Cannot search for confound files.
#> Project does not have fmriprep derivatives enabled. Cannot search for confound files.
#> Project does not have fmriprep derivatives enabled. Cannot search for confound files.
#> Project does not have fmriprep derivatives enabled. Cannot search for confound files.
#> Project does not have fmriprep derivatives enabled. Cannot search for confound files.
#> Project does not have fmriprep derivatives enabled. Cannot search for confound files.
#> Project does not have fmriprep derivatives enabled. Cannot search for confound files.
#> Project does not have fmriprep derivatives enabled. Cannot search for confound files.
#> # A tibble: 48 × 8
#>    .subid .session .task                .run  scans    n_scans events   n_events
#>    <chr>  <chr>    <chr>                <chr> <list>     <int> <list>      <int>
#>  1 01     ""       balloonanalogriskta… 01    <tibble>       1 <tibble>      158
#>  2 01     ""       balloonanalogriskta… 02    <tibble>       1 <tibble>      156
#>  3 01     ""       balloonanalogriskta… 03    <tibble>       1 <tibble>      149
#>  4 02     ""       balloonanalogriskta… 01    <tibble>       1 <tibble>      185
#>  5 02     ""       balloonanalogriskta… 02    <tibble>       1 <tibble>      184
#>  6 02     ""       balloonanalogriskta… 03    <tibble>       1 <tibble>      186
#>  7 03     ""       balloonanalogriskta… 01    <tibble>       1 <tibble>      150
#>  8 03     ""       balloonanalogriskta… 02    <tibble>       1 <tibble>      169
#>  9 03     ""       balloonanalogriskta… 03    <tibble>       1 <tibble>      175
#> 10 04     ""       balloonanalogriskta… 01    <tibble>       1 <tibble>      166
#> # ℹ 38 more rows
…
