Getting Started with bidser • bidser
…
Working with Event Files

Event files describe the experimental paradigm - when stimuli were
presented, what responses occurred, etc. This is crucial for task-based
fMRI analysis.

# Find all event files
event_file_paths <- event_files(proj)
cat("Found", length(event_file_paths), "event files\n")
#> Found 48 event files

# Read event data into a nested data frame
events_data <- read_events(proj)
events_data
#> # A tibble: 48 × 5
#> # Groups:   .task, .session, .run, .subid [48]
#>    .subid .session .run  .task                 data              
#>    <chr>  <chr>    <chr> <chr>                 <list>            
#>  1 01     NA       01    balloonanalogrisktask <tibble [158 × 2]>
#>  2 01     NA       02    balloonanalogrisktask <tibble [156 × 2]>
#>  3 01     NA       03    balloonanalogrisktask <tibble [149 × 2]>
#>  4 02     NA       01    balloonanalogrisktask <tibble [185 × 2]>
#>  5 02     NA       02    balloonanalogrisktask <tibble [184 × 2]>
#>  6 02     NA       03    balloonanalogrisktask <tibble [186 × 2]>
#>  7 03     NA       01    balloonanalogrisktask <tibble [150 × 2]>
#>  8 03     NA       02    balloonanalogrisktask <tibble [169 × 2]>
#>  9 03     NA       03    balloonanalogrisktask <tibble [175 × 2]>
#> 10 04     NA       01    balloonanalogrisktask <tibble [166 × 2]>
#> # ℹ 38 more rows
…
